<svg width="47" height="47" viewBox="0 0 47 47" fill="none" xmlns="http://www.w3.org/2000/svg">
<circle cx="23.5" cy="23.5" r="22.7023" fill="#F7FBFF" stroke="#3B4D67" stroke-width="1.59535"/>
<path d="M23.0519 17.3158L23.5525 17.805L24.0418 17.3044L25.6607 15.648C28.0729 13.1799 32.0291 13.1346 34.4972 15.5468C36.9652 17.959 37.0105 21.9152 34.5983 24.3832L32.9793 26.0397L23.7548 35.4779L14.3166 26.2533L12.6602 24.6344C10.1921 22.2222 10.1468 18.266 12.559 15.7979C14.9712 13.3299 18.9274 13.2846 21.3954 15.6968L23.0519 17.3158Z" fill="#F46EB4" stroke="#3B4D67" stroke-width="1.4"/>
</svg>
