<svg width="81" height="79" viewBox="0 0 81 79" fill="none" xmlns="http://www.w3.org/2000/svg">
<path opacity="0.3" d="M0.154488 40.6504C1.35798 57.661 4.27412 67.7639 23.7383 75.5492C43.1792 83.312 66.3233 74.1542 74.9097 67.2464C83.4961 60.3161 81.4363 42.2255 78.1962 27.2849C74.9097 4.24403 54.1264 0.486389 41.6517 0.486389C-1.21101 0.508888 -0.470398 27.2399 0.154488 40.6504Z" fill="url(#paint0_linear)"/>
<circle opacity="0.3" cx="39.7569" cy="38.7571" r="30.8395" fill="url(#paint1_linear)"/>
<path d="M49.6556 14H30.343C28.4815 14 26.9658 15.5157 26.9658 17.3772V56.6226C26.9658 58.4849 28.4815 60.0006 30.343 60.0006H49.6549C51.5171 60.0006 53.0328 58.4849 53.0328 56.6234V17.3772C53.0328 15.5157 51.5171 14 49.6556 14ZM28.4992 20.1334H51.4995V49.2671H28.4992V20.1334Z" fill="white"/>
<path d="M49.6556 14H30.343C28.4815 14 26.9658 15.5157 26.9658 17.3772V56.6226C26.9658 58.4849 28.4815 60.0006 30.343 60.0006H49.6549C51.5171 60.0006 53.0328 58.4849 53.0328 56.6234V17.3772C53.0328 15.5157 51.5171 14 49.6556 14ZM30.343 15.5334H49.6549C50.6722 15.5334 51.4995 16.3606 51.4995 17.3772V18.6001H28.4992V17.3772C28.4992 16.3606 29.3264 15.5334 30.343 15.5334ZM49.6556 58.4673H30.343C29.3264 58.4673 28.4992 57.64 28.4992 56.6234V50.8005H51.4995V56.6234C51.4995 57.64 50.6722 58.4673 49.6556 58.4673Z" fill="#F4C2D7"/>
<path d="M49.6556 14H30.343C28.4815 14 26.9658 15.5157 26.9658 17.3772V56.6226C26.9658 58.4849 28.4815 60.0006 30.343 60.0006H49.6549C51.5171 60.0006 53.0328 58.4849 53.0328 56.6234V17.3772C53.0328 15.5157 51.5171 14 49.6556 14ZM28.4992 20.1334H51.4995V49.2671H28.4992V20.1334ZM30.343 15.5334H49.6549C50.6722 15.5334 51.4995 16.3606 51.4995 17.3772V18.6001H28.4992V17.3772C28.4992 16.3606 29.3264 15.5334 30.343 15.5334ZM49.6556 58.4673H30.343C29.3264 58.4673 28.4992 57.64 28.4992 56.6234V50.8005H51.4995V56.6234C51.4995 57.64 50.6722 58.4673 49.6556 58.4673Z" fill="#3B4D67"/>
<path d="M39.9993 51.5674C38.308 51.5674 36.9326 52.9428 36.9326 54.6341C36.9326 56.3254 38.308 57.7008 39.9993 57.7008C41.6906 57.7008 43.066 56.3254 43.066 54.6341C43.066 52.9428 41.6906 51.5674 39.9993 51.5674ZM39.9993 56.1674C39.1537 56.1674 38.466 55.4797 38.466 54.6341C38.466 53.7884 39.1537 53.1007 39.9993 53.1007C40.845 53.1007 41.5327 53.7884 41.5327 54.6341C41.5327 55.4797 40.845 56.1674 39.9993 56.1674Z" fill="#3B4D67"/>
<path d="M36.9327 17.8333H39.9994C40.4234 17.8333 40.7661 17.4906 40.7661 17.0666C40.7661 16.6426 40.4234 16.2999 39.9994 16.2999H36.9327C36.5087 16.2999 36.166 16.6426 36.166 17.0666C36.166 17.4906 36.5087 17.8333 36.9327 17.8333Z" fill="#3B4D67"/>
<path d="M42.2994 17.8333H43.0661C43.49 17.8333 43.8327 17.4906 43.8327 17.0666C43.8327 16.6426 43.49 16.2999 43.0661 16.2999H42.2994C41.8754 16.2999 41.5327 16.6426 41.5327 17.0666C41.5327 17.4906 41.8754 17.8333 42.2994 17.8333Z" fill="#3B4D67"/>
<path d="M60.4022 30.5031C60.1024 30.2034 59.6179 30.2034 59.3181 30.5031C59.0183 30.8029 59.0183 31.2875 59.3181 31.5872C62.1824 34.4515 62.1824 39.1122 59.3181 41.9772C59.0183 42.277 59.0183 42.7615 59.3181 43.0613C59.4676 43.2108 59.6639 43.286 59.8601 43.286C60.0564 43.286 60.2527 43.2108 60.4022 43.0613C63.8645 39.5998 63.8645 33.9655 60.4022 30.5031Z" fill="#3B4D67"/>
<path d="M57.1737 32.2483C56.8739 31.9485 56.3893 31.9485 56.0896 32.2483C55.7898 32.548 55.7898 33.0326 56.0896 33.3323C57.038 34.2807 57.5601 35.5442 57.5601 36.889C57.5601 38.2337 57.038 39.4964 56.0896 40.4448C55.7898 40.7446 55.7898 41.2291 56.0896 41.5289C56.2391 41.6784 56.4353 41.7535 56.6316 41.7535C56.8279 41.7535 57.0242 41.6784 57.1737 41.5289C58.4118 40.2915 59.0934 38.6431 59.0934 36.889C59.0934 35.1348 58.4126 33.4857 57.1737 32.2483Z" fill="#3B4D67"/>
<path d="M20.6808 31.5872C20.9806 31.2875 20.9806 30.8029 20.6808 30.5031C20.381 30.2034 19.8965 30.2034 19.5967 30.5031C16.1344 33.9655 16.1344 39.599 19.5967 43.0613C19.7462 43.2108 19.9425 43.286 20.1388 43.286C20.335 43.286 20.5313 43.2108 20.6808 43.0613C20.9806 42.7615 20.9806 42.277 20.6808 41.9772C17.8157 39.1129 17.8157 34.4523 20.6808 31.5872Z" fill="#3B4D67"/>
<path d="M23.9091 32.0368C23.6093 31.7371 23.1248 31.7371 22.825 32.0368C21.5868 33.2743 20.9053 34.9226 20.9053 36.6768C20.9053 38.4309 21.5868 40.0793 22.825 41.3175C22.9745 41.467 23.1708 41.5421 23.3671 41.5421C23.5633 41.5421 23.7596 41.467 23.9091 41.3175C24.2089 41.0177 24.2089 40.5332 23.9091 40.2334C22.9607 39.285 22.4386 38.0215 22.4386 36.6768C22.4386 35.332 22.96 34.0693 23.9091 33.1209C24.2081 32.8219 24.2081 32.3366 23.9091 32.0368Z" fill="#3B4D67"/>
<defs>
<linearGradient id="paint0_linear" x1="40.5" y1="78.5139" x2="40.5" y2="0.486389" gradientUnits="userSpaceOnUse">
<stop stop-color="#F8ED49"/>
<stop offset="1" stop-color="#EEC04A"/>
</linearGradient>
<linearGradient id="paint1_linear" x1="39.7569" y1="7.9176" x2="39.7569" y2="69.5965" gradientUnits="userSpaceOnUse">
<stop stop-color="#F8ED49"/>
<stop offset="1" stop-color="#EEC04A"/>
</linearGradient>
</defs>
</svg>
