<svg width="43" height="49" viewBox="0 0 43 49" fill="none" xmlns="http://www.w3.org/2000/svg">
<path d="M40.8494 18.896H32.2496C31.4579 18.896 30.8162 19.5377 30.8162 20.3293V26.0626H21.4997C20.7081 26.0626 20.0664 26.7043 20.0664 27.496V33.2292H11.4665C10.6749 33.2292 10.0331 33.871 10.0331 34.6626V40.3959H2.14997C0.962616 40.3959 0 41.3584 0 42.5458V46.8458C0 48.0331 0.962532 48.9958 2.14997 48.9958H40.8494C42.0368 48.9958 42.9994 48.0332 42.9994 46.8458V21.0461C42.9994 19.8586 42.0369 18.896 40.8494 18.896Z" fill="white"/>
<path d="M40.8494 18.896H32.2496C31.4579 18.896 30.8162 19.5377 30.8162 20.3293V26.0626H21.4997C20.7081 26.0626 20.0664 26.7043 20.0664 27.496V33.2292H11.4665C10.6749 33.2292 10.0331 33.871 10.0331 34.6626V40.3959H2.14997C0.962616 40.3959 0 41.3584 0 42.5458V46.8458C0 48.0331 0.962532 48.9958 2.14997 48.9958H40.8494C42.0368 48.9958 42.9994 48.0332 42.9994 46.8458V21.0461C42.9994 19.8586 42.0369 18.896 40.8494 18.896ZM41.5661 46.8456C41.5661 47.2414 41.2453 47.5622 40.8494 47.5622H2.14997C1.75416 47.5622 1.43334 47.2414 1.43334 46.8456V42.5457C1.43334 42.1499 1.75416 41.829 2.14997 41.829H10.0332C10.8248 41.829 11.4666 41.1873 11.4666 40.3957V34.6624H20.0664C20.8581 34.6624 21.4998 34.0207 21.4998 33.2291V27.4958H30.8163C31.6079 27.4958 32.2496 26.8541 32.2496 26.0625V20.3292H40.8495C41.2453 20.3292 41.5662 20.65 41.5662 21.0458V46.8456H41.5661Z" fill="#3B4D67"/>
<path d="M25.5 9L37 13L36.5 3L25.5 9Z" fill="#F46EB4"/>
<path d="M24.5778 8.3213L36.3339 2.57753V0.766666C36.3339 0.3427 36.6773 0 37.1005 0C37.5237 0 37.8672 0.3427 37.8672 0.766666V3.06667V18.3667V20.6667V19.2333C37.8672 19.6573 37.5237 20 37.1005 20C36.6773 20 36.3339 19.6573 36.3339 19.2333V13.1888L24.6199 9.72967C24.334 9.61773 24.1431 9.34557 24.1339 9.03967C24.1247 8.733 24.2995 8.45087 24.5778 8.3213ZM36.3339 11.542V10.3667V4.26727L26.8479 8.95763L36.3339 11.542Z" fill="#3B4D67"/>
</svg>
