<svg width="44" height="45" viewBox="0 0 44 45" fill="none" xmlns="http://www.w3.org/2000/svg">
<path d="M2.12653 4H40.8735C42.046 4 43 4.9387 43 6.0925V35.7225C43 36.8763 42.046 37.815 40.8735 37.815H36.6997V44.3025C36.6997 44.5846 36.527 44.839 36.2621 44.9469C36.1744 44.9827 36.0823 45 35.991 45C35.8065 45 35.6252 44.9291 35.4896 44.7957L28.4442 37.815H2.12653C0.95396 37.815 0 36.8763 0 35.7225V6.0925C0 4.9387 0.95396 4 2.12653 4Z" fill="white"/>
<path d="M2.12653 4H40.8735C42.046 4 43 4.9387 43 6.0925V35.7225C43 36.8763 42.046 37.815 40.8735 37.815H36.6997V44.3025C36.6997 44.5846 36.527 44.839 36.2621 44.9469C36.1744 44.9827 36.0823 45 35.991 45C35.8065 45 35.6252 44.9291 35.4896 44.7957L28.4442 37.815H2.12653C0.95396 37.815 0 36.8763 0 35.7225V6.0925C0 4.9387 0.95396 4 2.12653 4ZM1.41769 35.7225C1.41769 36.1071 1.73567 36.42 2.12653 36.42H28.7378C28.9258 36.42 29.1061 36.4935 29.239 36.6243L35.282 42.6186V37.1175C35.282 36.7323 35.5994 36.42 35.9909 36.42H40.8735C41.2643 36.42 41.5823 36.1071 41.5823 35.7225V6.0925C41.5823 5.7079 41.2643 5.395 40.8735 5.395H2.12653C1.73567 5.395 1.41769 5.7079 1.41769 6.0925V35.7225Z" fill="#3B4D67"/>
<circle cx="14" cy="24" r="4" fill="#B09FD8"/>
<circle cx="27" cy="24" r="4" fill="#B09FD8"/>
<path d="M14.2119 28.4237C16.824 28.4237 18.9492 26.2985 18.9492 23.6864C18.9492 21.0744 16.824 18.9492 14.2119 18.9492C13.3111 18.9492 12.4715 19.2064 11.7536 19.6444C13.1464 16.6563 16.1702 14.5763 19.678 14.5763C20.081 14.5763 20.4068 14.2505 20.4068 13.8475C20.4068 13.4444 20.081 13.1187 19.678 13.1187C14.0516 13.1187 9.47461 17.6956 9.47461 23.322C9.47461 23.3483 9.487 23.3701 9.48919 23.3949C9.48336 23.4919 9.47461 23.5881 9.47461 23.6864C9.47461 26.2985 11.5998 28.4237 14.2119 28.4237ZM14.2119 20.4068C16.0201 20.4068 17.4916 21.8783 17.4916 23.6864C17.4916 25.4946 16.0201 26.9661 14.2119 26.9661C12.4037 26.9661 10.9322 25.4946 10.9322 23.6864C10.9322 21.8783 12.4037 20.4068 14.2119 20.4068Z" fill="#3B4D67"/>
<path d="M26.6015 28.4237C29.2136 28.4237 31.3388 26.2985 31.3388 23.6864C31.3388 21.0744 29.2136 18.9492 26.6015 18.9492C25.7007 18.9492 24.8611 19.2064 24.1433 19.6444C25.536 16.6563 28.5599 14.5763 32.0676 14.5763C32.4707 14.5763 32.7965 14.2505 32.7965 13.8475C32.7965 13.4444 32.4707 13.1187 32.0676 13.1187C26.4412 13.1187 21.8643 17.6956 21.8643 23.322C21.8643 23.3483 21.8766 23.3701 21.8788 23.3949C21.873 23.4919 21.8643 23.5881 21.8643 23.6864C21.8643 26.2985 23.9895 28.4237 26.6015 28.4237ZM26.6015 20.4068C28.4097 20.4068 29.8812 21.8783 29.8812 23.6864C29.8812 25.4946 28.4097 26.9661 26.6015 26.9661C24.7934 26.9661 23.3219 25.4946 23.3219 23.6864C23.3219 21.8783 24.7934 20.4068 26.6015 20.4068Z" fill="#3B4D67"/>
</svg>
