<svg width="50" height="11" viewBox="0 0 50 11" fill="none" xmlns="http://www.w3.org/2000/svg">
<path d="M4.06279 0H6.46353L10.4571 10.6061H7.87165L7.0868 8.42866H3.39335L2.58541 10.6061H0L1.5928 6.34491H3.99354H6.46353L4.06279 0Z" fill="#3B4D67"/>
<path d="M13.9427 0H16.3435L19.1828 6.57904L22.0452 0H24.4229V10.6061H22.0914V5.29132L19.7599 10.6061H18.6288L16.2973 5.29132V10.6295H13.9427V0Z" fill="#3B4D67"/>
<path d="M28.3933 4.26115H36.542V6.36832H28.3933V4.26115ZM28.3933 2.27105V0H36.542V2.27105H28.3933ZM36.5189 8.35842V10.6295H28.3933V8.35842" fill="#3B4D67"/>
<path d="M40.6971 0H43.3749L47.2992 6.32149V0H50V10.6061H47.3453L43.398 4.28457V10.6061H40.6971V0Z" fill="#3B4D67"/>
</svg>
