<svg width="21" height="21" viewBox="0 0 21 21" fill="none" xmlns="http://www.w3.org/2000/svg">
<path d="M0.54002 8.40129C0.54002 8.39415 0.54377 8.388 0.544088 8.38122C0.546204 8.35764 0.550873 8.33433 0.558056 8.31175C0.562765 8.2916 0.569267 8.27188 0.577446 8.25285C0.587183 8.23481 0.598555 8.2177 0.611483 8.20178C0.624969 8.18226 0.640493 8.16423 0.65781 8.14799C0.663279 8.1432 0.665632 8.13673 0.671419 8.1323L3.94498 5.58912V2.95327C3.94498 2.38913 4.40235 1.93177 4.96649 1.93177H8.65652L10.134 0.784608C10.4991 0.500183 11.0107 0.500183 11.3758 0.784608L12.8535 1.93177H16.5436C17.1077 1.93177 17.5651 2.38909 17.5651 2.95327V5.58912L20.8383 8.1323C20.8441 8.13673 20.8465 8.1432 20.8519 8.14799C20.8693 8.16423 20.8848 8.18226 20.8983 8.20178C20.9112 8.2177 20.9226 8.23481 20.9323 8.25285C20.9406 8.27184 20.9471 8.29156 20.9517 8.31175C20.9588 8.33389 20.9635 8.35672 20.9657 8.37986C20.9657 8.38668 20.9697 8.39279 20.9697 8.39993V19.9783C20.9684 20.088 20.9492 20.1966 20.9129 20.3001C20.991 20.418 20.9874 20.5721 20.9037 20.6861C20.8201 20.8002 20.6742 20.85 20.5383 20.8109C20.3662 20.9338 20.16 20.9999 19.9485 20.9998H1.56145C1.34908 20.9994 1.14223 20.9324 0.970009 20.8082C0.94096 20.8171 0.910833 20.822 0.880466 20.8228C0.75609 20.8235 0.641411 20.7558 0.582037 20.6465C0.522661 20.5372 0.528208 20.4041 0.596481 20.3002C0.560289 20.1967 0.541216 20.088 0.539938 19.9784L0.54002 8.40129Z" fill="#FBD7B7"/>
<path d="M4.23571 11.0031L8.79953 14.4803L10.7555 12.959L12.7114 14.2629L17.2752 10.7857V2.74471L16.6232 2.31006H4.88768L4.23571 2.74471V11.0031Z" fill="#F7FBFF"/>
<path d="M0.54002 8.40129C0.54002 8.39415 0.54377 8.388 0.544088 8.38122C0.546204 8.35764 0.550873 8.33433 0.558056 8.31175C0.562765 8.2916 0.569267 8.27188 0.577446 8.25285C0.587183 8.23481 0.598555 8.2177 0.611483 8.20178C0.624969 8.18226 0.640493 8.16423 0.65781 8.14799C0.663279 8.1432 0.665632 8.13673 0.671419 8.1323L3.94498 5.58912V2.95327C3.94498 2.38913 4.40235 1.93177 4.96649 1.93177H8.65652L10.134 0.784608C10.4991 0.500183 11.0107 0.500183 11.3758 0.784608L12.8535 1.93177H16.5436C17.1077 1.93177 17.5651 2.38909 17.5651 2.95327V5.58912L20.8383 8.1323C20.8441 8.13673 20.8465 8.1432 20.8519 8.14799C20.8693 8.16423 20.8848 8.18226 20.8983 8.20178C20.9112 8.2177 20.9226 8.23481 20.9323 8.25285C20.9406 8.27184 20.9471 8.29156 20.9517 8.31175C20.9588 8.33389 20.9635 8.35672 20.9657 8.37986C20.9657 8.38668 20.9697 8.39279 20.9697 8.39993V19.9783C20.9684 20.088 20.9492 20.1966 20.9129 20.3001C20.991 20.418 20.9874 20.5721 20.9037 20.6861C20.8201 20.8002 20.6742 20.85 20.5383 20.8109C20.3662 20.9338 20.16 20.9999 19.9485 20.9998H1.56145C1.34908 20.9994 1.14223 20.9324 0.970009 20.8082C0.94096 20.8171 0.910833 20.822 0.880466 20.8228C0.75609 20.8235 0.641411 20.7558 0.582037 20.6465C0.522661 20.5372 0.528208 20.4041 0.596481 20.3002C0.560289 20.1967 0.541216 20.088 0.539938 19.9784L0.54002 8.40129ZM10.9594 1.32194C10.8405 1.22745 10.6721 1.22745 10.5532 1.32194L9.76764 1.93177H11.7425L10.9594 1.32194ZM19.8641 20.3189L10.9593 13.4019C10.8403 13.308 10.6724 13.308 10.5534 13.4019L1.64596 20.3189H19.8641ZM1.221 19.787L10.1347 12.8643C10.4995 12.5802 11.0106 12.5802 11.3754 12.8643L20.2891 19.787V8.91986L13.1132 14.4498C12.9645 14.5651 12.7506 14.5381 12.6353 14.3894C12.52 14.2407 12.5471 14.0268 12.6957 13.9115L19.9605 8.31243L17.5651 6.45125V10.6784C17.5651 10.8665 17.4126 11.0189 17.2246 11.0189C17.0365 11.0189 16.8841 10.8664 16.8841 10.6784V2.95327C16.8841 2.76521 16.7317 2.61278 16.5436 2.61278H4.96657C4.77851 2.61278 4.62608 2.76521 4.62608 2.95327V10.6784C4.62608 10.8665 4.47365 11.0189 4.28559 11.0189C4.09753 11.0189 3.9451 10.8664 3.9451 10.6784V6.45125L1.54967 8.31243L8.82459 13.9193C8.97314 14.0347 9.00004 14.2486 8.88468 14.3972C8.76932 14.5458 8.55536 14.5727 8.40677 14.4573L1.221 8.9199V19.787Z" fill="#3B4D67"/>
<path d="M14.1601 4.99641H7.35004C7.16198 4.99641 7.00955 4.84398 7.00955 4.65592C7.00955 4.46786 7.16198 4.31543 7.35004 4.31543H14.1601C14.3482 4.31543 14.5006 4.46786 14.5006 4.65592C14.5006 4.84398 14.3482 4.99641 14.1601 4.99641Z" fill="#3B4D67"/>
<path d="M7.00955 6.69889C7.00955 6.51083 7.16198 6.3584 7.35004 6.3584H14.1601C14.3482 6.3584 14.5006 6.51087 14.5006 6.69889C14.5006 6.88695 14.3482 7.03938 14.1601 7.03938H7.35004C7.16198 7.03938 7.00955 6.88691 7.00955 6.69889Z" fill="#3B4D67"/>
<path d="M7.00954 8.74186C7.00954 8.55379 7.16197 8.40137 7.35003 8.40137H10.4145C10.6026 8.40137 10.755 8.55379 10.755 8.74186C10.755 8.92992 10.6026 9.08234 10.4145 9.08234H7.35003C7.16197 9.08234 7.00954 8.92988 7.00954 8.74186Z" fill="#3B4D67"/>
</svg>
