<svg width="81" height="79" viewBox="0 0 81 79" fill="none" xmlns="http://www.w3.org/2000/svg">
<path opacity="0.3" d="M0.154488 40.6504C1.35798 57.661 4.27412 67.7639 23.7383 75.5492C43.1792 83.312 66.3233 74.1542 74.9097 67.2464C83.4961 60.3161 81.4363 42.2255 78.1962 27.2849C74.9097 4.24403 54.1264 0.486389 41.6517 0.486389C-1.21101 0.508888 -0.470398 27.2399 0.154488 40.6504Z" fill="url(#paint0_linear)"/>
<circle opacity="0.5" cx="39.7569" cy="38.7571" r="30.8395" fill="url(#paint1_linear)"/>
<path d="M18.0002 31.2469C18.0002 31.2311 18.0084 31.2176 18.0091 31.2027C18.0138 31.1507 18.0241 31.0994 18.0399 31.0496C18.0503 31.0053 18.0646 30.9618 18.0826 30.9199C18.1041 30.8802 18.1291 30.8425 18.1576 30.8074C18.1873 30.7644 18.2215 30.7247 18.2596 30.6889C18.2717 30.6784 18.2769 30.6641 18.2896 30.6544L25.5002 25.0526V19.2467C25.5002 18.0041 26.5076 16.9967 27.7502 16.9967H35.8781L39.1325 14.4699C39.9366 13.8434 41.0637 13.8434 41.8678 14.4699L45.1228 16.9967H53.2507C54.4933 16.9967 55.5007 18.004 55.5007 19.2467V25.0526L62.7106 30.6544C62.7233 30.6641 62.7286 30.6784 62.7405 30.6889C62.7787 30.7247 62.8129 30.7644 62.8426 30.8074C62.8711 30.8425 62.8962 30.8802 62.9176 30.9199C62.9358 30.9618 62.9501 31.0052 62.9603 31.0496C62.9759 31.0984 62.9862 31.1487 62.991 31.1997C62.991 31.2147 63 31.2282 63 31.2439V56.7472C62.997 56.9888 62.9547 57.2281 62.8748 57.456C63.0469 57.7156 63.0388 58.0551 62.8546 58.3063C62.6704 58.5575 62.3491 58.6672 62.0497 58.581C61.6707 58.8518 61.2165 58.9974 60.7507 58.9973H20.25C19.7823 58.9963 19.3266 58.8487 18.9473 58.575C18.8833 58.5947 18.817 58.6055 18.7501 58.6073C18.4761 58.6089 18.2235 58.4596 18.0927 58.2189C17.9619 57.9782 17.9742 57.6851 18.1245 57.4561C18.0448 57.2282 18.0028 56.9888 18 56.7473L18.0002 31.2469Z" fill="#FBD7B7"/>
<path d="M26.1406 36.9774L36.1932 44.6365L40.5015 41.2856L44.8097 44.1578L54.8623 36.4987V18.787L53.4262 17.8296H27.5767L26.1406 18.787V36.9774Z" fill="#F7FBFF"/>
<path d="M18.0002 31.2469C18.0002 31.2311 18.0084 31.2176 18.0091 31.2027C18.0138 31.1507 18.0241 31.0994 18.0399 31.0496C18.0503 31.0053 18.0646 30.9618 18.0826 30.9199C18.1041 30.8802 18.1291 30.8425 18.1576 30.8074C18.1873 30.7644 18.2215 30.7247 18.2596 30.6889C18.2717 30.6784 18.2769 30.6641 18.2896 30.6544L25.5002 25.0526V19.2467C25.5002 18.0041 26.5076 16.9967 27.7502 16.9967H35.8781L39.1325 14.4699C39.9366 13.8434 41.0637 13.8434 41.8678 14.4699L45.1228 16.9967H53.2507C54.4933 16.9967 55.5007 18.004 55.5007 19.2467V25.0526L62.7106 30.6544C62.7233 30.6641 62.7286 30.6784 62.7405 30.6889C62.7787 30.7247 62.8129 30.7644 62.8426 30.8074C62.8711 30.8425 62.8962 30.8802 62.9176 30.9199C62.9358 30.9618 62.9501 31.0052 62.9603 31.0496C62.9759 31.0984 62.9862 31.1487 62.991 31.1997C62.991 31.2147 63 31.2282 63 31.2439V56.7472C62.997 56.9888 62.9547 57.2281 62.8748 57.456C63.0469 57.7156 63.0388 58.0551 62.8546 58.3063C62.6704 58.5575 62.3491 58.6672 62.0497 58.581C61.6707 58.8518 61.2165 58.9974 60.7507 58.9973H20.25C19.7823 58.9963 19.3266 58.8487 18.9473 58.575C18.8833 58.5947 18.817 58.6055 18.7501 58.6073C18.4761 58.6089 18.2235 58.4596 18.0927 58.2189C17.9619 57.9782 17.9742 57.6851 18.1245 57.4561C18.0448 57.2282 18.0028 56.9888 18 56.7473L18.0002 31.2469ZM40.9505 15.6534C40.6886 15.4453 40.3177 15.4453 40.0558 15.6534L38.3256 16.9967H42.6756L40.9505 15.6534ZM60.5648 57.4973L40.9504 42.2616C40.6884 42.0547 40.3185 42.0547 40.0564 42.2616L20.4362 57.4973H60.5648ZM19.5001 56.3258L39.134 41.0773C39.9376 40.4517 41.0634 40.4517 41.867 41.0773L61.5008 56.3258V32.3891L45.6947 44.5698C45.3672 44.8237 44.8959 44.7641 44.642 44.4366C44.3881 44.1092 44.4477 43.6379 44.7752 43.384L60.777 31.0511L55.5007 26.9516V36.2626C55.5007 36.6768 55.1649 37.0126 54.7507 37.0126C54.3365 37.0126 54.0007 36.6768 54.0007 36.2626V19.2467C54.0007 18.8325 53.665 18.4967 53.2508 18.4967H27.7504C27.3362 18.4967 27.0004 18.8325 27.0004 19.2467V36.2626C27.0004 36.6768 26.6647 37.0126 26.2504 37.0126C25.8362 37.0126 25.5004 36.6768 25.5004 36.2626V26.9516L20.2241 31.0511L36.2483 43.4013C36.5755 43.6554 36.6348 44.1267 36.3807 44.454C36.1266 44.7812 35.6553 44.8404 35.328 44.5863L19.5001 32.3892V56.3258Z" fill="#3B4D67"/>
<path d="M48.0005 23.7467H33.0002C32.586 23.7467 32.2503 23.4109 32.2503 22.9967C32.2503 22.5825 32.586 22.2467 33.0002 22.2467H48.0005C48.4147 22.2467 48.7505 22.5825 48.7505 22.9967C48.7505 23.4109 48.4147 23.7467 48.0005 23.7467Z" fill="#3B4D67"/>
<path d="M32.2503 27.4966C32.2503 27.0823 32.586 26.7466 33.0002 26.7466H48.0005C48.4147 26.7466 48.7505 27.0824 48.7505 27.4966C48.7505 27.9108 48.4147 28.2465 48.0005 28.2465H33.0002C32.586 28.2465 32.2503 27.9107 32.2503 27.4966Z" fill="#3B4D67"/>
<path d="M32.2504 31.9971C32.2504 31.5828 32.5862 31.2471 33.0004 31.2471H39.7505C40.1647 31.2471 40.5005 31.5828 40.5005 31.9971C40.5005 32.4113 40.1647 32.747 39.7505 32.747H33.0004C32.5862 32.747 32.2504 32.4112 32.2504 31.9971Z" fill="#3B4D67"/>
<defs>
<linearGradient id="paint0_linear" x1="40.5" y1="78.5139" x2="40.5" y2="0.486389" gradientUnits="userSpaceOnUse">
<stop stop-color="#BB8ADD"/>
<stop offset="1" stop-color="#9779DA"/>
</linearGradient>
<linearGradient id="paint1_linear" x1="39.7569" y1="7.9176" x2="39.7569" y2="69.5965" gradientUnits="userSpaceOnUse">
<stop stop-color="#BB8ADD"/>
<stop offset="1" stop-color="#9779DA"/>
</linearGradient>
</defs>
</svg>
