<svg width="80" height="78" viewBox="0 0 80 78" fill="none" xmlns="http://www.w3.org/2000/svg">
<g opacity="0.7">
<path d="M31.076 66.2704C28.8296 68.8912 27.3319 71.8865 26.9575 75.2562C26.9575 76.3794 28.4551 76.7538 28.8296 75.6306C29.204 72.6353 30.7016 69.64 32.5736 67.3936C32.948 66.6448 31.8248 65.5216 31.076 66.2704Z" fill="#3B4D67"/>
<path d="M29.5784 66.27C27.3319 68.5165 25.4599 71.8861 25.4599 75.2558C25.0855 77.5022 28.0808 77.5022 29.204 76.379C29.9528 75.6302 29.9528 73.7582 30.3272 72.6349C30.7016 71.5117 31.076 70.7629 31.8248 69.6397C32.5736 68.8909 33.3225 68.142 33.6969 67.3932C34.8201 65.1468 31.4504 65.1468 30.3272 65.8956C28.8296 67.0188 31.076 67.3932 31.8248 66.6444C30.3272 67.7676 29.204 69.6397 28.4552 71.1373C28.0807 71.8861 27.7063 72.6349 27.7063 73.3838C27.7063 73.7582 26.9575 76.0046 26.9575 76.0046L28.0807 75.6302V74.8814C28.0807 74.507 28.0807 74.1326 28.4552 73.7582C28.8296 73.0093 28.8296 72.2605 29.204 71.5117C29.9528 69.6397 31.076 68.142 32.1992 66.6444C32.5736 66.27 31.8248 65.8956 31.4504 65.8956C30.7016 65.5212 29.9528 65.8956 29.5784 66.27Z" fill="#3B4D67"/>
<path d="M13.479 37.4407C9.73495 35.5687 5.99088 33.6966 2.2468 31.4502C1.87239 31.0758 0.749169 31.8246 1.49798 32.5734C5.24206 34.8198 8.98614 37.0663 13.1046 38.9383C13.8534 38.9383 14.6022 37.8151 13.479 37.4407Z" fill="#3B4D67"/>
<path d="M14.6022 36.3177C11.9813 35.1944 9.73485 34.0712 7.48841 32.948C5.99078 32.1992 4.11874 30.3271 2.62111 30.3271C1.87229 30.3271 0.749071 30.7016 0.374663 31.4504C-0.374152 32.5736 0.374663 33.3224 1.49789 34.0712C3.36992 35.1944 5.24196 36.3177 7.114 37.4409C8.98604 38.1897 10.8581 39.6873 12.7301 40.0617C14.2277 40.0617 16.4742 38.1897 14.6022 36.3177C13.8533 35.5689 11.6069 37.0665 12.7301 38.1897C13.1045 38.1897 13.4789 37.8153 14.2277 37.8153C12.3557 37.8153 10.1093 35.9433 8.61163 35.1944C7.48841 34.4456 6.36518 34.0712 5.61637 33.6968C4.86755 33.3224 3.36992 31.8248 2.62111 32.1992C2.2467 32.1992 1.87229 32.1992 1.12348 32.1992C2.99552 32.5736 5.24196 34.4456 6.73959 35.5689C8.61163 36.6921 10.4837 37.4409 12.7301 38.5641C14.2277 38.9385 16.0998 37.0665 14.6022 36.3177Z" fill="#3B4D67"/>
<path d="M34.4457 13.1042C35.1945 8.98572 33.3224 4.49283 30.7016 1.12316C30.3272 0.374343 28.8295 1.12316 29.5784 1.87197C31.8248 5.24164 33.6968 9.36012 32.948 13.1042C32.5736 13.853 34.0713 14.2274 34.4457 13.1042Z" fill="#3B4D67"/>
<path d="M35.5687 13.1043C36.3175 9.36019 35.1943 5.24171 32.9479 2.24645C32.1991 1.12322 31.8246 0 30.327 0C29.2038 0 28.0806 0.748815 28.0806 1.87204C28.0806 2.62085 28.455 2.99526 28.8294 3.36967C29.5782 4.49289 30.327 5.24171 30.7014 6.36493C31.0758 7.48815 31.4502 8.61137 31.4502 9.7346C31.8246 10.8578 31.4502 11.981 31.4502 13.4787C31.8246 15.3507 34.8199 15.3507 35.5687 13.1043C36.3175 11.981 33.3223 11.981 32.9479 13.1043C34.0711 13.1043 34.4455 12.3554 34.4455 11.6066C34.4455 11.2322 34.4455 10.8578 34.4455 10.4834C34.4455 9.36019 34.0711 8.23697 34.0711 7.48815C33.6967 5.99052 32.5735 3.36967 31.4502 2.62085C31.0758 1.87204 30.7014 1.87204 29.9526 2.62085C30.327 2.99526 30.7014 3.36967 30.7014 3.74408C31.4502 4.8673 31.8246 5.99052 32.1991 7.11374C32.9479 8.98578 33.3223 11.2322 32.9479 13.4787C32.5735 14.6019 35.5687 14.6019 35.5687 13.1043Z" fill="#3B4D67"/>
<path d="M65.1473 28.4552C70.0146 28.0808 74.1331 25.4599 77.5028 22.0902C78.2516 21.3414 77.1284 20.5926 76.3795 21.3414C73.3843 24.3367 69.2658 26.9575 64.7729 26.9575C64.0241 26.9575 64.3985 28.4552 65.1473 28.4552Z" fill="#3B4D67"/>
<path d="M64.7726 28.8296C68.5166 28.4552 71.8863 27.332 74.8816 25.0856C76.0048 24.3367 81.6209 20.2183 77.8768 20.2183C76.7536 20.2183 76.0048 20.5927 75.256 21.3415C73.0095 23.2135 70.7631 25.0856 68.1422 25.8344C66.6446 26.2088 64.3982 26.2088 63.6493 27.332C62.9005 28.0808 63.2749 28.8296 64.3982 29.204C65.147 29.204 67.3934 28.4552 66.6446 28.0808L66.2702 26.9576C65.8958 27.332 65.5214 27.332 65.5214 27.7064C66.2702 27.332 67.3934 27.332 68.5166 27.332C69.6399 26.9576 70.7631 26.5832 71.8863 26.2088C73.0095 25.8344 74.1328 25.0856 74.8816 24.3367C76.0048 23.5879 77.128 22.0903 78.2512 21.7159L76.3792 22.0903C77.8768 22.4647 75.256 24.3367 75.256 24.3367C74.5072 25.0856 73.7583 25.46 73.0095 25.8344C71.1375 26.9576 68.8911 28.0808 66.2702 28.0808C65.147 28.0808 62.9005 29.204 64.7726 28.8296Z" fill="#3B4D67"/>
<path d="M60.6545 61.4027C65.1474 62.9003 68.5171 66.6444 70.3891 70.7629C70.7635 71.5117 72.2611 71.1373 71.5123 70.3885C69.2659 65.8956 65.8962 61.7771 60.6545 60.2795C60.2801 59.905 59.9057 61.0283 60.6545 61.4027Z" fill="#3B4D67"/>
<path d="M59.5312 62.1513C61.7777 62.9001 63.6497 64.3977 65.5217 65.8954C66.2706 67.0186 67.3938 67.7674 67.7682 68.8906C68.1426 69.6394 68.517 70.7627 69.2658 71.5115C70.0146 72.2603 71.1378 72.2603 72.2611 71.8859C73.7587 71.1371 73.3843 70.0139 72.6355 68.8906C70.7634 65.521 67.7682 62.1513 64.3985 60.6537C62.9009 59.9049 61.7777 59.5304 60.28 60.2793C59.1568 60.2793 58.408 61.4025 59.5312 62.1513C59.9056 62.5257 62.5265 61.4025 61.7777 61.0281C61.7777 60.6537 61.4033 60.6537 61.4033 60.2793C61.0288 60.2793 60.28 60.6537 59.9056 60.6537C62.1521 60.6537 65.1473 63.2745 66.645 64.7721C67.7682 65.8954 68.517 67.0186 69.2658 68.1418C69.6402 68.5162 71.1379 72.2603 71.8867 70.0139C71.8867 69.265 70.389 67.7674 70.0146 67.0186C69.2658 65.8954 68.517 65.1466 67.7682 64.3977C66.2706 62.9001 64.0241 61.4025 61.7777 61.0281C61.0288 60.6537 58.7824 61.7769 59.5312 62.1513Z" fill="#3B4D67"/>
<path d="M35.1944 24.7108C35.1944 24.7108 37.0665 25.4596 38.1897 23.5876C39.6873 22.4644 52.0428 11.2321 52.0428 11.2321C52.0428 11.2321 54.2892 9.73451 55.4124 12.3554C56.1613 14.9762 56.5357 30.7013 56.5357 30.7013C56.5357 30.7013 56.5357 32.5734 58.0333 33.6966C59.5309 34.8198 71.8864 42.308 71.8864 42.308C71.8864 42.308 75.2561 45.3032 71.1376 47.5497C66.6447 49.7961 56.1613 53.5402 56.1613 53.5402C56.1613 53.5402 54.2892 53.9146 53.9148 55.0378C53.5404 56.1611 49.7963 71.1374 49.7963 71.1374C49.7963 71.1374 47.5499 74.1326 45.6779 71.5118C43.4314 68.8909 34.82 58.7819 34.82 58.7819C34.82 58.7819 34.0712 57.6587 32.948 58.0331C31.4504 58.7819 14.9764 59.9051 14.9764 59.9051C14.9764 59.9051 11.6068 59.5307 13.1044 56.9099C14.602 53.9146 22.4646 41.5592 22.4646 41.5592C22.4646 41.5592 23.5878 40.0615 22.839 38.5639C22.4646 37.4407 14.9764 23.962 14.9764 22.4644C14.9764 20.9667 16.4741 19.0947 18.3461 19.8435C20.2181 20.9667 35.1944 24.7108 35.1944 24.7108Z" fill="#967DB8"/>
<path d="M34.8202 25.8344C37.0667 26.2088 38.1899 24.7112 40.0619 23.588C42.6828 21.7159 48.6733 13.1046 51.6685 12.7302C57.2847 12.3557 52.7918 29.2041 56.9103 34.4458C59.5311 37.8155 68.8913 39.3131 70.3889 42.6828C72.6354 48.2989 59.5311 50.5453 56.1614 52.4174C49.4221 56.1614 53.1662 62.5264 49.0477 68.1425C46.8012 71.1377 48.2989 71.1377 44.5548 68.5169C42.6828 67.0192 41.1851 64.7728 39.6875 62.9008C38.1899 61.4031 36.6922 58.4079 34.8202 57.2847C28.0809 54.6638 11.2325 64.7728 17.223 52.0429C20.9671 44.1804 25.8344 42.3084 22.0903 34.0714C19.8439 29.2041 13.1046 22.8392 19.8439 21.7159C23.588 20.9671 30.7017 24.7112 34.8202 25.8344C35.569 26.2088 37.8155 24.3368 35.9434 23.9624C31.0761 22.8392 13.479 13.8534 13.479 23.588C13.479 29.9529 22.4648 34.8202 20.9671 41.5595C19.4695 47.9245 12.3557 52.0429 11.6069 58.7823C11.6069 59.1567 11.6069 59.1567 11.9813 59.5311C17.223 63.2752 24.7112 58.7823 30.7017 59.5311C37.8155 60.2799 38.5643 70.0145 44.9292 72.6354C49.7965 74.8818 50.5453 72.261 52.0429 68.1425C53.1662 64.3984 53.1662 58.0335 55.787 55.4126C58.0335 53.1662 63.6496 52.0429 66.6448 50.9197C71.5121 49.0477 77.5027 47.1757 73.3842 41.5595C71.1377 38.1899 64.7728 37.0666 61.7775 34.4458C57.2847 30.3273 58.4079 25.8344 58.0335 19.8439C57.6591 15.351 58.0335 9.36049 52.4174 10.1093C46.8012 10.8581 41.9339 24.3368 36.3178 23.9624C34.4458 23.588 32.9482 25.8344 34.8202 25.8344Z" fill="#3B4D67"/>
</g>
</svg>
